127.0.0.1 - - [12/Jan/2022:13:54:59 +0530] "GET / HTTP/1.1" 404 751
0:0:0:0:0:0:0:1 - - [12/Jan/2022:13:55:02 +0530] "GET /MyProject1/ HTTP/1.1" 404 766
0:0:0:0:0:0:0:1 - - [12/Jan/2022:13:55:03 +0530] "GET /favicon.ico HTTP/1.1" 404 762
127.0.0.1 - - [12/Jan/2022:15:41:07 +0530] "GET / HTTP/1.1" 404 751
127.0.0.1 - - [12/Jan/2022:16:04:58 +0530] "GET / HTTP/1.1" 404 751
0:0:0:0:0:0:0:1 - - [12/Jan/2022:16:05:01 +0530] "GET /MyProject1/WEB-INF/index.jsp HTTP/1.1" 404 682
127.0.0.1 - - [12/Jan/2022:16:12:59 +0530] "GET / HTTP/1.1" 404 751
127.0.0.1 - - [12/Jan/2022:16:13:01 +0530] "GET /MyProject1/WEB-INF/classes/com/greatlearning/week7/assignment/bean/Login.java HTTP/1.1" 404 682
127.0.0.1 - - [12/Jan/2022:16:13:08 +0530] "GET /favicon.ico HTTP/1.1" 404 762
